\relax 
\providecommand\hyper@newdestlabel[2]{}
\providecommand\HyperFirstAtBeginDocument{\AtBeginDocument}
\HyperFirstAtBeginDocument{\ifx\hyper@anchor\@undefined
\global\let\oldcontentsline\contentsline
\gdef\contentsline#1#2#3#4{\oldcontentsline{#1}{#2}{#3}}
\global\let\oldnewlabel\newlabel
\gdef\newlabel#1#2{\newlabelxx{#1}#2}
\gdef\newlabelxx#1#2#3#4#5#6{\oldnewlabel{#1}{{#2}{#3}}}
\AtEndDocument{\ifx\hyper@anchor\@undefined
\let\contentsline\oldcontentsline
\let\newlabel\oldnewlabel
\fi}
\fi}
\global\let\hyper@last\relax 
\gdef\HyperFirstAtBeginDocument#1{#1}
\providecommand\HyField@AuxAddToFields[1]{}
\providecommand\HyField@AuxAddToCoFields[2]{}
\bibstyle{apalike}
\@writefile{lof}{\contentsline {figure}{\numberline {1}{\ignorespaces An example of FR-II emission, showing greater radio brightness in the lobes\relax }}{1}{figure.caption.2}}
\providecommand*\caption@xref[2]{\@setref\relax\@undefined{#1}}
\newlabel{fig:fanaroff4}{{1}{1}{An example of FR-II emission, showing greater radio brightness in the lobes\relax }{figure.caption.2}{}}
\@writefile{lof}{\contentsline {figure}{\numberline {2}{\ignorespaces An overlay of radio data on an optical image of 0313-192 showing radio lobes significantly larger than the galactic disk, as well as a large central bulge\relax }}{1}{figure.caption.4}}
\newlabel{fig:0313}{{2}{1}{An overlay of radio data on an optical image of 0313-192 showing radio lobes significantly larger than the galactic disk, as well as a large central bulge\relax }{figure.caption.4}{}}
\@writefile{lof}{\contentsline {figure}{\numberline {3}{\ignorespaces The Tadpole Galaxy, UGC 10214, an example of a disrupted spiral galaxy, due to a merger occuring 100 million years ago\relax }}{1}{figure.caption.6}}
\newlabel{fig:TadpoleGalaxy}{{3}{1}{The Tadpole Galaxy, UGC 10214, an example of a disrupted spiral galaxy, due to a merger occuring 100 million years ago\relax }{figure.caption.6}{}}
\@writefile{lof}{\contentsline {figure}{\numberline {4}{\ignorespaces An example of the Radio Galaxy Zoo interface\relax }}{1}{figure.caption.10}}
\newlabel{fig:RGZ}{{4}{1}{An example of the Radio Galaxy Zoo interface\relax }{figure.caption.10}{}}
