\begin{thebibliography}{}

\bibitem[Bernal et~al., 2016]{bernal2016toward}
Bernal, I., Guido, H., Rautus, S., and Piacenza, J. (2016).
\newblock Toward an experimental design approach for magnetocaloric
  refrigeration systems.
\newblock In {\em ASME 2016 International Design Engineering Technical
  Conferences and Computers and Information in Engineering Conference}, pages
  V004T05A023--V004T05A023. American Society of Mechanical Engineers.

\bibitem[Patterson, 2011]{patterson2011computer}
Patterson, D.~A. (2011).
\newblock {\em Computer architecture: a quantitative approach}.
\newblock Elsevier.

\bibitem[Takamura et~al., 2017]{takamura2017inverse}
Takamura, Y., Shuto, Y., Funakubo, H., Kurosawa, M.~K., Nakagawa, S., Sugahara,
  S., et~al. (2017).
\newblock Inverse-magnetostriction-induced switching current reduction of
  stt-mtjs and its application for low-voltage mram.
\newblock {\em Solid-State Electronics}, 128:194--199.

\end{thebibliography}
