\relax 
\providecommand\hyper@newdestlabel[2]{}
\providecommand\HyperFirstAtBeginDocument{\AtBeginDocument}
\HyperFirstAtBeginDocument{\ifx\hyper@anchor\@undefined
\global\let\oldcontentsline\contentsline
\gdef\contentsline#1#2#3#4{\oldcontentsline{#1}{#2}{#3}}
\global\let\oldnewlabel\newlabel
\gdef\newlabel#1#2{\newlabelxx{#1}#2}
\gdef\newlabelxx#1#2#3#4#5#6{\oldnewlabel{#1}{{#2}{#3}}}
\AtEndDocument{\ifx\hyper@anchor\@undefined
\let\contentsline\oldcontentsline
\let\newlabel\oldnewlabel
\fi}
\fi}
\global\let\hyper@last\relax 
\gdef\HyperFirstAtBeginDocument#1{#1}
\providecommand\HyField@AuxAddToFields[1]{}
\providecommand\HyField@AuxAddToCoFields[2]{}
\bibstyle{apalike}
\citation{bernal2016toward}
\citation{takamura2017inverse}
\citation{takamura2017inverse}
\citation{bernal2016toward}
\citation{bernal2016toward}
\citation{takamura2017inverse}
\citation{patterson2011computer}
\@writefile{toc}{\contentsline {section}{\numberline {1}Introduction}{1}{section.1}}
\@writefile{toc}{\contentsline {paragraph}{}{1}{section*.2}}
\@writefile{toc}{\contentsline {paragraph}{}{1}{section*.3}}
\@writefile{toc}{\contentsline {paragraph}{}{1}{section*.4}}
\@writefile{toc}{\contentsline {paragraph}{}{1}{section*.5}}
\@writefile{toc}{\contentsline {section}{\numberline {2}Functional Magnetic Materials \& Their Applications}{1}{section.2}}
\@writefile{toc}{\contentsline {subsection}{\numberline {2.1}Advances in Magnetostrictive Materials}{1}{subsection.2.1}}
\@writefile{toc}{\contentsline {subsection}{\numberline {2.2}Advances in Magnetocaloric Materials}{1}{subsection.2.2}}
\@writefile{toc}{\contentsline {subsection}{\numberline {2.3}Applications}{1}{subsection.2.3}}
\@writefile{toc}{\contentsline {subsubsection}{\numberline {2.3.1}Damage Sensors}{1}{subsubsection.2.3.1}}
\@writefile{toc}{\contentsline {subsubsection}{\numberline {2.3.2}Commercial Refrigeration}{1}{subsubsection.2.3.2}}
\@writefile{toc}{\contentsline {section}{\numberline {3}Toward an Experimental Design Approach for Magnetocaloric Refrigeration Systems \cite  {bernal2016toward}}{1}{section.3}}
\@writefile{toc}{\contentsline {section}{\numberline {4}Inverse-magnetostriction-induced switching current reduction of STT-MTJs and its application for low-voltage MRAM \cite  {takamura2017inverse}}{1}{section.4}}
\@writefile{toc}{\contentsline {subsection}{\numberline {4.1}The Search for ``Universal Memory''}{1}{subsection.4.1}}
\@writefile{toc}{\contentsline {paragraph}{}{1}{section*.7}}
\@writefile{toc}{\contentsline {paragraph}{}{1}{section*.8}}
\@writefile{lot}{\contentsline {table}{\numberline {1}{\ignorespaces List of modern memory types\relax }}{2}{table.caption.6}}
\providecommand*\caption@xref[2]{\@setref\relax\@undefined{#1}}
\newlabel{memorytype}{{1}{2}{List of modern memory types\relax }{table.caption.6}{}}
\@writefile{toc}{\contentsline {paragraph}{}{2}{section*.9}}
\@writefile{toc}{\contentsline {section}{\numberline {5}Comparison}{2}{section.5}}
\@writefile{toc}{\contentsline {section}{\numberline {6}Conclusion}{2}{section.6}}
\bibdata{funcbib}
\bibcite{bernal2016toward}{Bernal et\nobreakspace  {}al., 2016}
\bibcite{patterson2011computer}{Patterson, 2011}
\bibcite{takamura2017inverse}{Takamura et\nobreakspace  {}al., 2017}
\bibstyle{plain}
\@writefile{toc}{\contentsline {section}{\numberline {7}Appendix}{i}{section.7}}
\@writefile{toc}{\contentsline {section}{List of Figures}{i}{section.7}}
\@writefile{toc}{\contentsline {section}{List of Tables}{i}{section*.10}}
\@writefile{toc}{\contentsline {section}{References}{i}{section*.11}}
