\relax 
\ifx\hyper@anchor\@undefined
\global \let \oldcontentsline\contentsline
\gdef \contentsline#1#2#3#4{\oldcontentsline{#1}{#2}{#3}}
\global \let \oldnewlabel\newlabel
\gdef \newlabel#1#2{\newlabelxx{#1}#2}
\gdef \newlabelxx#1#2#3#4#5#6{\oldnewlabel{#1}{{#2}{#3}}}
\AtEndDocument{\let \contentsline\oldcontentsline
\let \newlabel\oldnewlabel}
\else
\global \let \hyper@last\relax 
\fi

\bibstyle{apalike}
\citation{singh2015discovery}
\citation{willett2016radio}
\citation{singh2015discovery}
\citation{willett2016radio}
\citation{blandford1977electromagnetic}
\citation{koide2002extraction}
\citation{penrose1971extraction}
\citation{rosswog2007introduction}
\citation{longair2011high}
\citation{longair2011high}
\citation{baars1977absolute}
\citation{baars1977absolute}
\@writefile{toc}{\contentsline {section}{\numberline {1}Introduction}{1}{section.1}}
\@writefile{toc}{\contentsline {paragraph}{}{1}{section*.2}}
\@writefile{toc}{\contentsline {paragraph}{}{1}{section*.3}}
\@writefile{toc}{\contentsline {paragraph}{}{1}{section*.4}}
\@writefile{toc}{\contentsline {paragraph}{}{1}{section*.5}}
\@writefile{toc}{\contentsline {section}{\numberline {2}Spiral DRAGNs}{1}{section.2}}
\@writefile{toc}{\contentsline {subsection}{\numberline {2.1}Background}{1}{subsection.2.1}}
\@writefile{toc}{\contentsline {subsubsection}{\numberline {2.1.1}Radio Loud Active Galactic Nuclei}{1}{subsubsection.2.1.1}}
\@writefile{toc}{\contentsline {paragraph}{}{1}{section*.6}}
\@writefile{toc}{\contentsline {paragraph}{}{1}{section*.7}}
\@writefile{toc}{\contentsline {paragraph}{}{1}{section*.8}}
\@writefile{lof}{\contentsline {figure}{\numberline {1}{\ignorespaces Synchrotron spectrum of the galaxies Cas-A and Cyg-A, showing flat spectrum \cite  {baars1977absolute}}}{1}{figure.1}}
\newlabel{fig:cyga}{{1}{1}{\relax }{figure.1}{}}
\@writefile{toc}{\contentsline {paragraph}{}{1}{section*.9}}
\citation{bridle1994deep}
\citation{bridle1994deep}
\citation{longair2011high}
\citation{ledlow1998unusual}
\citation{ledlow1998unusual}
\citation{mao2015j1649+}
\citation{singh2015discovery}
\citation{johnson2015unusual}
\citation{mao2015j1649+}
\citation{mao2015j1649+}
\@writefile{toc}{\contentsline {paragraph}{}{2}{section*.10}}
\@writefile{lof}{\contentsline {figure}{\numberline {2}{\ignorespaces A VLA map of the FR-II quasar 3C 47, \cite  {bridle1994deep}}}{2}{figure.2}}
\newlabel{fig:fanrff4}{{2}{2}{\relax }{figure.2}{}}
\@writefile{toc}{\contentsline {paragraph}{}{2}{section*.11}}
\@writefile{toc}{\contentsline {paragraph}{}{2}{section*.12}}
\@writefile{toc}{\contentsline {subsubsection}{\numberline {2.1.2}Spiral DRAGNs - Breaking the Accepted Models}{2}{subsubsection.2.1.2}}
\@writefile{toc}{\contentsline {paragraph}{}{2}{section*.13}}
\@writefile{toc}{\contentsline {paragraph}{}{2}{section*.14}}
\@writefile{toc}{\contentsline {paragraph}{}{2}{section*.15}}
\@writefile{toc}{\contentsline {paragraph}{}{2}{section*.16}}
\@writefile{toc}{\contentsline {subsubsection}{\numberline {2.1.3}The Importance of Spiral DRAGNs}{2}{subsubsection.2.1.3}}
\@writefile{toc}{\contentsline {paragraph}{}{2}{section*.17}}
\@writefile{toc}{\contentsline {subsection}{\numberline {2.2}Here Be DRAGNs}{2}{subsection.2.2}}
\@writefile{toc}{\contentsline {paragraph}{}{2}{section*.18}}
\citation{lintott2008galaxy}
\citation{masters2010galaxy}
\citation{masters2010galaxy}
\citation{naab2006surface}
\@writefile{toc}{\contentsline {paragraph}{}{3}{section*.19}}
\@writefile{toc}{\contentsline {subsubsection}{\numberline {2.2.1}Discovery of Spiral DRAGNs}{3}{subsubsection.2.2.1}}
\@writefile{toc}{\contentsline {paragraph}{}{3}{section*.20}}
\@writefile{toc}{\contentsline {paragraph}{}{3}{section*.21}}
\@writefile{toc}{\contentsline {subsubsection}{\numberline {2.2.2}Properties of J1649+26 }{3}{subsubsection.2.2.2}}
\@writefile{toc}{\contentsline {paragraph}{}{3}{section*.22}}
\@writefile{toc}{\contentsline {paragraph}{}{3}{section*.23}}
\@writefile{toc}{\contentsline {subsubsection}{\numberline {2.2.3}Potential Explanation of Phenomena}{3}{subsubsection.2.2.3}}
\@writefile{toc}{\contentsline {paragraph}{}{3}{section*.24}}
\@writefile{toc}{\contentsline {paragraph}{}{3}{section*.25}}
\@writefile{toc}{\contentsline {paragraph}{}{3}{section*.26}}
\@writefile{toc}{\contentsline {subsubsection}{\numberline {2.2.4}The Heart of the DRAGN - Use of VLBI}{3}{subsubsection.2.2.4}}
\citation{singh2015discovery}
\citation{singh2015discovery}
\citation{meert2015catalogue}
\citation{becker1995first}
\@writefile{toc}{\contentsline {paragraph}{}{4}{section*.27}}
\@writefile{toc}{\contentsline {section}{\numberline {3}Discovery of Rare Double-Lobe Radio Galaxies Hosted in Spiral Galaxies \cite  {singh2015discovery} - A Summary}{4}{section.3}}
\newlabel{sec:discovery}{{3}{4}{Discovery of Rare Double-Lobe Radio Galaxies Hosted in Spiral Galaxies \cite {singh2015discovery} - A Summary\relax }{section.3}{}}
\@writefile{toc}{\contentsline {paragraph}{}{4}{section*.28}}
\@writefile{toc}{\contentsline {subsection}{\numberline {3.1}Introduction}{4}{subsection.3.1}}
\@writefile{toc}{\contentsline {paragraph}{}{4}{section*.29}}
\@writefile{toc}{\contentsline {subsection}{\numberline {3.2}Observations}{4}{subsection.3.2}}
\@writefile{toc}{\contentsline {paragraph}{}{4}{section*.30}}
\@writefile{toc}{\contentsline {paragraph}{}{4}{section*.31}}
\@writefile{lof}{\contentsline {figure}{\numberline {3}{\ignorespaces VLA "B" configuration synthetic aperture, used by FIRST}}{4}{figure.3}}
\newlabel{fig:bconfig}{{3}{4}{\relax }{figure.3}{}}
\@writefile{lof}{\contentsline {figure}{\numberline {4}{\ignorespaces VLA "D" configuration synthetic aperture, used by NVSS}}{4}{figure.4}}
\newlabel{fig:dconfig}{{4}{4}{\relax }{figure.4}{}}
\@writefile{toc}{\contentsline {paragraph}{}{4}{section*.32}}
\citation{mao2015j1649+}
\citation{magorrian1998demography}
\citation{singh2015discovery}
\citation{singh2015discovery}
\citation{willett2016radio}
\citation{mao2015j1649+}
\citation{willett2016radio}
\@writefile{toc}{\contentsline {paragraph}{}{5}{section*.33}}
\@writefile{toc}{\contentsline {subsection}{\numberline {3.3}Results and Discussion}{5}{subsection.3.3}}
\@writefile{toc}{\contentsline {paragraph}{}{5}{section*.34}}
\@writefile{toc}{\contentsline {paragraph}{}{5}{section*.35}}
\@writefile{lot}{\contentsline {table}{\numberline {1}{\ignorespaces Star formation rates}}{5}{table.1}}
\newlabel{my-label}{{1}{5}{\relax }{table.1}{}}
\@writefile{toc}{\contentsline {paragraph}{}{5}{section*.36}}
\@writefile{toc}{\contentsline {paragraph}{}{5}{section*.37}}
\@writefile{toc}{\contentsline {paragraph}{}{5}{section*.38}}
\@writefile{toc}{\contentsline {paragraph}{}{5}{section*.39}}
\@writefile{toc}{\contentsline {section}{\numberline {4}Radio Galaxy Zoo: Host Galaxies and Radio Morphologies For Large Surveys From Visual Inspection \cite  {willett2016radio} - A Summary}{5}{section.4}}
\newlabel{sec:RGZ}{{4}{5}{Radio Galaxy Zoo: Host Galaxies and Radio Morphologies For Large Surveys From Visual Inspection \cite {willett2016radio} - A Summary\relax }{section.4}{}}
\@writefile{toc}{\contentsline {paragraph}{}{5}{section*.40}}
\citation{fan2015matching}
\citation{becker1995first}
\citation{wright2010wide}
\@writefile{toc}{\contentsline {paragraph}{}{6}{section*.41}}
\@writefile{toc}{\contentsline {subsection}{\numberline {4.1}Introduction}{6}{subsection.4.1}}
\@writefile{toc}{\contentsline {paragraph}{}{6}{section*.42}}
\@writefile{toc}{\contentsline {paragraph}{}{6}{section*.43}}
\@writefile{toc}{\contentsline {paragraph}{}{6}{section*.44}}
\@writefile{toc}{\contentsline {paragraph}{}{6}{section*.45}}
\@writefile{toc}{\contentsline {paragraph}{}{6}{section*.46}}
\@writefile{toc}{\contentsline {subsection}{\numberline {4.2}Data, Website \& Interface}{6}{subsection.4.2}}
\@writefile{toc}{\contentsline {paragraph}{}{6}{section*.47}}
\@writefile{toc}{\contentsline {paragraph}{}{6}{section*.48}}
\citation{masters2010galaxy}
\citation{gawronski2006hybrid}
\citation{gawronski2006hybrid}
\citation{willett2016radio}
\citation{mao2015j1649+}
\@writefile{lof}{\contentsline {figure}{\numberline {5}{\ignorespaces An example of the radio galaxy interface}}{7}{figure.5}}
\newlabel{fig:rgz}{{5}{7}{\relax }{figure.5}{}}
\@writefile{toc}{\contentsline {paragraph}{}{7}{section*.49}}
\@writefile{toc}{\contentsline {paragraph}{}{7}{section*.50}}
\@writefile{toc}{\contentsline {subsection}{\numberline {4.3}Results and Discussion}{7}{subsection.4.3}}
\@writefile{toc}{\contentsline {subsubsection}{\numberline {4.3.1}Comparison to WISE}{7}{subsubsection.4.3.1}}
\@writefile{toc}{\contentsline {paragraph}{}{7}{section*.51}}
\@writefile{toc}{\contentsline {subsubsection}{\numberline {4.3.2}HyMORS}{7}{subsubsection.4.3.2}}
\@writefile{toc}{\contentsline {paragraph}{}{7}{section*.52}}
\@writefile{lof}{\contentsline {figure}{\numberline {6}{\ignorespaces An example of HyMOR emission, source \cite  {gawronski2006hybrid}}}{7}{figure.6}}
\newlabel{fig:hymor}{{6}{7}{\relax }{figure.6}{}}
\@writefile{toc}{\contentsline {paragraph}{}{7}{section*.53}}
\@writefile{toc}{\contentsline {subsubsection}{\numberline {4.3.3}Bending Angles}{7}{subsubsection.4.3.3}}
\@writefile{toc}{\contentsline {paragraph}{}{7}{section*.54}}
\@writefile{toc}{\contentsline {paragraph}{}{7}{section*.55}}
\@writefile{toc}{\contentsline {paragraph}{}{7}{section*.56}}
\citation{mulcahy2016discovery}
\@writefile{toc}{\contentsline {section}{\numberline {5}Conclusion}{8}{section.5}}
\@writefile{toc}{\contentsline {subsection}{\numberline {5.1}Mao et. al's Work}{8}{subsection.5.1}}
\@writefile{toc}{\contentsline {paragraph}{}{8}{section*.57}}
\@writefile{toc}{\contentsline {paragraph}{}{8}{section*.58}}
\@writefile{toc}{\contentsline {subsection}{\numberline {5.2}Singh et. al's Work}{8}{subsection.5.2}}
\@writefile{toc}{\contentsline {paragraph}{}{8}{section*.59}}
\@writefile{toc}{\contentsline {paragraph}{}{8}{section*.60}}
\@writefile{toc}{\contentsline {subsection}{\numberline {5.3}Willet et. al's Work}{8}{subsection.5.3}}
\@writefile{toc}{\contentsline {paragraph}{}{8}{section*.61}}
\@writefile{toc}{\contentsline {paragraph}{}{8}{section*.62}}
\citation{singh2015discovery}
\citation{singh2015discovery}
\citation{singh2015discovery}
\citation{mao2015j1649+}
\citation{ledlow1998unusual}
\citation{hota2011discovery}
\citation{bagchi2014megaparsec}
\gdef \LT@i {\LT@entry 
    {1}{54.1113pt}\LT@entry 
    {1}{30.20842pt}\LT@entry 
    {1}{64.51018pt}\LT@entry 
    {1}{30.46541pt}\LT@entry 
    {1}{51.5033pt}\LT@entry 
    {1}{31.65288pt}\LT@entry 
    {1}{59.09004pt}\LT@entry 
    {1}{82.67393pt}}
\citation{fey1994high}
\citation{baars1977absolute}
\citation{bridle1994deep}
\citation{gawronski2006hybrid}
\bibdata{paperbib}
\bibcite{baars1977absolute}{Baars et\nobreakspace  {}al., 1977}
\bibcite{bagchi2014megaparsec}{Bagchi et\nobreakspace  {}al., 2014}
\bibcite{becker1995first}{Becker et\nobreakspace  {}al., 1995}
\bibcite{blandford1977electromagnetic}{Blandford and Znajek, 1977}
\bibcite{bridle1994deep}{Bridle et\nobreakspace  {}al., 1994}
\@writefile{toc}{\contentsline {section}{\numberline {6}Appendix}{i}{section.6}}
\@writefile{toc}{\contentsline {subsection}{\numberline {6.1}List of Discovered Spiral DRAGNs}{i}{subsection.6.1}}
\newlabel{listDRAGN}{{6.1}{i}{List of Discovered Spiral DRAGNs\relax }{subsection.6.1}{}}
\@writefile{toc}{\contentsline {subsection}{\numberline {6.2}Synthetic Aperture Generation \& Discussion}{i}{subsection.6.2}}
\@writefile{toc}{\contentsline {section}{\numberline {7}Lists \& References}{i}{section.7}}
\bibcite{fan2015matching}{Fan et\nobreakspace  {}al., 2015}
\bibcite{fey1994high}{Fey et\nobreakspace  {}al., 1994}
\bibcite{gawronski2006hybrid}{Gawro{\'n}ski et\nobreakspace  {}al., 2006}
\bibcite{hota2011discovery}{Hota et\nobreakspace  {}al., 2011}
\bibcite{johnson2015unusual}{Johnson et\nobreakspace  {}al., 2015}
\bibcite{koide2002extraction}{Koide et\nobreakspace  {}al., 2002}
\bibcite{ledlow1998unusual}{Ledlow et\nobreakspace  {}al., 1998}
\bibcite{lintott2008galaxy}{Lintott et\nobreakspace  {}al., 2008}
\bibcite{longair2011high}{Longair, 2011}
\bibcite{magorrian1998demography}{Magorrian et\nobreakspace  {}al., 1998}
\bibcite{mao2015j1649+}{Mao et\nobreakspace  {}al., 2015}
\bibcite{masters2010galaxy}{Masters et\nobreakspace  {}al., 2010}
\bibcite{meert2015catalogue}{Meert et\nobreakspace  {}al., 2015}
\bibcite{mulcahy2016discovery}{Mulcahy et\nobreakspace  {}al., 2016}
\bibcite{naab2006surface}{Naab and Trujillo, 2006}
\bibcite{penrose1971extraction}{Penrose and Floyd, 1971}
\bibcite{rosswog2007introduction}{Rosswog and Br{\"u}ggen, 2007}
\bibcite{singh2015discovery}{Singh et\nobreakspace  {}al., 2015}
\bibcite{willett2016radio}{Willett, 2016}
\bibcite{wright2010wide}{Wright et\nobreakspace  {}al., 2010}
\bibstyle{plain}
